  Label   Precision Recall   F1   LCount PCount
-----------------------------------------------
candidate    92.537 96.347 94.404  14646  15249
missed        0.000  0.000  0.000   1138    535
-----------------------------------------------
Accuracy     89.401   -      -      -     15784
